0,317.1,315.3:329.7,315.3
1,330.6,304.7:343.3,304.4
2,364.5,281.2:376.2,281.0
3,282.5,207.7:292.0,208.1
4,252.1,366.5:264.5,366.3
5,369.3,319.6:382.2,320.7
6,333.0,280.8:344.8,280.9
7,227.5,414.6:238.9,414.7
8,271.1,348.4:284.9,348.8
9,426.0,437.5:439.0,438.2
10,263.7,344.3:272.8,340.4
