0,353.0,249.6:431.6,245.3
1,284.5,183.3:358.4,179.9
2,338.5,263.7:413.8,260.1
3,272.8,298.7:347.6,295.7
4,472.1,273.0:544.5,270.1
5,403.1,272.9:476.1,269.3
6,426.5,280.2:467.2,278.0
7,454.4,272.3:526.8,269.3
8,328.5,294.1:401.7,293.2
9,352.9,274.4:417.2,272.1
10,352.6,275.6:417.2,272.1
11,429.8,237.4:496.6,233.9
