0,256.8,361.9:266.9,361.7
1,289.2,280.3:298.3,279.7
2,271.6,242.3:278.3,241.5
3,364.3,377.4:372.9,376.4
4,377.4,389.6:385.8,389.1
5,286.3,88.1:293.9,86.9
6,355.7,388.3:365.4,387.7
7,268.0,389.1:278.3,388.6
8,265.2,72.2:271.7,71.6
9,268.6,388.2:278.2,386.9
10,388.7,398.1:397.3,398.0
11,344.4,282.8:353.4,281.9
12,48.6,253.7:57.0,252.7
13,374.6,329.3:383.9,329.1
14,227.2,204.5:235.2,204.1
15,508.8,391.1:517.4,389.2
16,262.1,322.1:271.1,321.0
17,160.8,204.3:169.0,204.1
18,262.0,322.8:271.1,321.0
19,264.4,207.5:271.7,206.8
20,199.8,170.1:207.6,169.7
21,486.9,393.3:532.2,392.4
22,248.5,222.8:255.9,222.3
23,297.5,288.7:306.6,287.8
24,200.9,106.8:207.9,105.8
25,509.9,387.2:517.4,389.2
