0,133.7,361.1:133.8,361.1
1,174.3,300.0:174.1,300.1
2,500.8,382.7:500.9,382.7
3,226.5,262.5:226.4,262.5
4,522.6,176.9:522.5,177.0
5,114.7,331.9:114.6,332.0
6,249.3,376.2:249.2,376.2
7,196.3,62.2:196.2,62.1
8,261.3,384.3:261.1,384.3
9,561.6,167.8:561.6,167.9
10,513.2,158.7:513.2,158.6
11,394.4,397.5:394.4,397.6
12,394.5,399.7:394.4,399.7
13,522.9,394.7:522.7,394.6
14,212.3,401.9:212.3,401.9
15,400.6,403.6:400.7,403.5
16,359.2,401.5:359.2,401.4
17,531.1,396.4:531.0,396.4
18,222.2,400.2:222.1,400.2
19,553.8,105.9:553.8,105.9
20,338.9,406.2:338.9,406.0
21,201.7,406.4:202.1,406.1
22,350.6,402.8:350.5,402.7
23,498.3,394.3:498.3,394.1
24,538.6,397.9:538.7,397.8
25,482.1,401.8:482.4,401.7
26,90.6,300.0:90.5,299.9
27,555.3,404.1:555.5,404.1
28,547.6,382.4:547.4,382.2
29,547.1,384.4:547.0,384.1
30,117.2,201.7:117.1,201.8
31,96.6,226.3:96.6,226.2
32,188.9,374.9:188.6,374.5
