0,411.9,302.0:420.4,302.6
1,249.9,223.2:254.5,223.9
2,249.4,235.1:254.2,235.7
3,160.9,384.9:166.4,385.8
4,418.1,312.7:426.8,313.5
5,287.4,72.3:291.7,72.7
6,431.1,288.6:439.9,289.0
7,421.4,293.2:429.1,294.7
8,484.5,271.7:491.6,272.4
9,394.7,109.0:398.7,111.5
10,377.4,389.5:384.3,390.3
11,322.0,92.5:326.4,93.9
12,383.2,133.8:386.9,133.9
13,378.7,132.8:382.4,132.8
14,395.3,147.6:398.7,146.3
15,148.7,232.0:154.3,232.5
16,134.4,187.0:140.2,187.4
17,373.9,132.0:377.6,131.6
18,365.1,127.0:369.3,128.8
19,296.1,72.8:300.3,73.7
20,49.4,388.5:79.5,389.9
21,455.8,281.8:463.7,282.3
22,338.5,206.3:342.6,206.7
23,330.2,136.8:334.3,136.6
24,404.0,405.5:440.5,406.7
25,338.7,129.5:343.1,130.0
26,325.0,208.9:328.8,210.1
27,435.4,300.7:444.0,301.1
28,311.3,47.4:315.1,48.1
29,339.7,372.3:347.1,373.0
30,446.1,258.2:452.3,258.9
31,261.9,266.0:267.6,266.5
32,350.8,288.2:358.1,289.0
33,124.0,170.0:126.3,169.7
34,222.9,58.6:228.3,60.3
35,419.4,393.3:384.3,390.3
36,410.1,398.4:405.9,398.2
37,256.5,241.8:261.4,242.4
38,304.3,204.5:308.8,205.4
39,74.2,460.3:121.8,463.0
