0,133.7,361.1:133.7,361.1
1,149.6,216.6:149.6,216.6
2,500.8,382.7:500.8,382.7
3,169.4,254.5:169.3,254.5
4,158.4,280.7:158.4,280.8
5,114.6,332.1:114.7,331.9
6,196.3,62.2:196.3,62.2
7,249.2,376.2:249.3,376.2
8,261.3,384.3:261.3,384.3
9,184.1,290.7:184.1,290.7
10,513.1,159.0:513.2,158.7
11,394.4,397.5:394.4,397.5
12,561.6,167.8:561.6,167.8
13,250.9,396.4:250.8,396.4
14,522.8,394.6:522.9,394.7
15,212.2,402.0:212.3,401.9
16,359.3,401.4:359.2,401.5
17,553.9,105.9:553.8,105.9
18,339.0,405.9:338.9,406.2
19,221.9,400.4:222.2,400.2
20,350.5,402.9:350.6,402.8
21,162.8,73.4:162.9,73.4
22,203.7,405.5:201.7,406.4
23,538.7,397.9:538.6,397.9
24,482.3,401.8:482.1,401.8
25,490.2,397.0:489.9,397.2
26,342.7,393.8:342.7,393.7
27,90.5,299.9:90.6,300.0
28,547.3,383.7:547.1,384.4
29,547.2,382.7:547.6,382.4
30,155.1,125.7:155.0,125.1
31,117.2,201.9:117.2,201.7
32,247.5,244.4:247.3,244.4
33,194.9,383.6:196.6,383.6
34,135.4,396.5:135.3,396.4
35,90.3,241.2:90.5,241.2
36,96.5,226.2:96.6,226.3
37,559.2,446.1:558.2,445.0
