0,129.1,235.8:122.8,236.4
1,563.2,249.0:545.4,249.6
2,568.8,205.3:550.3,206.4
3,345.0,450.7:331.1,451.8
4,544.5,183.9:528.1,184.5
5,528.9,162.0:512.6,164.0
6,126.9,296.5:107.9,297.5
7,543.2,197.2:527.1,198.2
8,509.3,285.6:495.7,285.9
9,592.9,271.4:573.7,272.5
10,112.6,57.7:104.3,57.5
11,510.6,293.9:497.1,295.1
12,334.6,456.0:320.9,457.1
13,517.2,274.1:501.5,274.9
14,493.6,273.5:480.5,274.3
15,553.8,115.2:536.6,116.3
16,258.0,299.1:242.8,300.1
17,551.2,117.0:534.9,117.5
18,109.1,134.1:101.2,135.1
19,609.3,276.8:589.6,277.9
20,546.9,118.5:531.3,118.9
21,273.7,420.5:258.7,422.2
22,501.0,317.6:487.2,317.1
23,179.0,317.0:158.0,318.4
24,605.0,280.2:585.7,281.0
25,598.2,34.0:582.4,34.7
26,562.7,127.0:546.3,127.5
27,586.6,213.1:568.4,214.0
28,101.8,213.2:93.6,213.9
29,564.7,132.3:548.7,132.7
30,108.1,344.1:88.1,346.7
31,561.2,158.6:545.1,163.7
32,552.3,52.9:537.2,53.2
33,212.0,145.9:199.1,72.4
34,211.6,112.3:200.6,144.2
35,579.3,286.4:562.5,286.5
36,300.7,418.4:284.5,420.2
37,211.4,113.6:200.6,144.2
38,213.0,156.3:200.6,144.2
39,54.8,226.7:46.1,226.8
40,119.2,332.1:103.5,333.5
41,559.9,139.2:545.1,163.7
42,213.7,177.0:199.1,72.4
