0,310.3,316.1:310.3,316.3
1,214.3,272.2:214.1,272.3
2,322.1,305.4:322.4,305.5
3,261.6,150.0:261.5,149.5
4,257.6,312.2:257.0,312.2
5,262.3,188.2:262.2,187.3
6,360.1,319.8:360.6,320.3
7,239.4,141.0:239.6,140.4
8,195.7,120.9:195.6,119.4
9,225.8,410.4:225.4,410.7
10,235.1,139.5:235.1,139.2
11,209.3,136.5:209.3,135.7
12,220.9,133.4:221.0,132.9
13,299.1,239.0:299.0,238.5
14,230.5,139.5:230.3,138.7
15,257.5,339.5:257.8,341.2
16,239.0,126.1:238.7,123.7
