0,121.4,362.4:121.4,362.4
1,95.3,282.8:95.5,282.7
2,160.6,304.8:160.8,304.8
3,137.1,221.0:137.1,220.9
4,122.1,264.8:122.1,264.7
5,349.1,395.1:349.0,395.1
6,213.5,266.9:213.3,266.9
7,217.0,275.1:216.8,275.2
8,121.0,257.4:121.1,257.5
9,509.6,183.2:509.6,183.4
10,106.7,337.7:106.7,337.8
11,184.0,66.5:183.9,66.5
12,366.3,397.5:366.3,397.3
13,176.4,73.0:176.2,73.2
14,486.9,382.2:486.8,382.3
15,343.1,397.8:343.1,397.8
16,549.1,252.5:549.1,252.5
17,531.6,183.7:531.5,183.7
18,497.8,394.7:497.6,394.7
19,372.1,399.9:371.9,399.8
20,337.2,399.7:337.2,399.6
21,201.0,400.4:200.9,400.4
22,207.8,399.1:207.6,399.1
23,228.1,388.0:228.1,388.1
24,504.7,396.8:504.2,396.6
25,248.0,386.1:248.1,386.0
26,473.9,394.6:473.4,394.8
27,330.5,403.8:330.4,403.7
28,118.3,246.7:118.3,246.6
29,502.1,136.2:502.2,135.8
30,190.1,404.7:192.9,402.7
31,544.6,263.4:544.6,263.4
32,206.2,304.4:206.2,304.5
33,514.8,400.5:514.3,401.0
34,179.2,409.3:177.6,409.7
35,616.4,384.7:616.9,384.6
36,212.8,250.7:212.7,250.7
37,93.3,68.6:93.3,68.4
38,122.7,200.7:122.8,200.2
39,245.6,329.9:245.6,329.9
40,237.4,416.3:237.1,416.7
41,566.8,385.9:571.5,382.8
42,610.7,395.4:611.6,395.9
43,253.8,292.5:253.8,292.5
44,527.2,138.0:527.2,137.3
45,528.9,138.0:528.7,138.1
46,599.0,391.2:588.0,392.5
47,97.2,203.7:97.2,203.9
48,577.6,386.6:532.8,386.9
49,261.4,399.0:262.9,399.0
50,103.1,413.0:103.1,413.0
51,427.6,393.7:427.6,394.0
52,530.4,142.7:530.8,142.0
53,572.0,382.9:571.5,382.8
54,77.6,90.7:77.6,90.9
55,411.4,393.5:588.0,392.5
56,532.5,122.3:532.6,122.2
57,239.7,236.0:239.7,236.0
58,183.4,385.3:183.9,385.3
59,545.9,462.9:546.0,463.1
60,595.9,381.1:534.0,384.9
61,136.9,386.8:134.1,386.9
