0,157.8,215.3:136.8,214.5
1,450.8,302.6:432.9,302.0
2,367.6,267.5:346.4,266.9
3,419.9,223.9:398.6,223.7
4,496.1,273.2:477.2,272.6
5,376.7,278.2:356.2,278.1
6,495.9,272.9:477.2,272.6
7,451.4,256.5:432.3,256.3
8,417.5,141.6:396.3,141.0
9,419.1,283.1:400.8,282.7
10,350.8,261.3:331.0,261.3
11,498.4,384.3:477.7,384.3
12,146.0,217.8:124.4,216.8
13,407.5,297.6:389.9,297.4
14,517.6,272.6:497.9,272.2
15,399.8,134.8:377.2,134.8
16,456.1,279.1:436.9,278.8
17,470.8,272.6:451.3,272.3
18,311.6,73.2:290.9,72.5
19,377.6,127.2:356.7,127.9
20,413.6,272.1:396.6,271.2
21,523.1,288.8:503.1,288.2
22,148.9,277.1:128.2,276.3
23,492.7,282.5:474.1,281.8
24,348.8,423.0:357.4,422.9
25,436.8,178.2:416.6,178.4
26,281.7,266.4:261.4,266.0
27,428.0,401.2:358.2,397.4
28,383.4,289.1:365.0,288.7
29,274.2,204.9:253.8,204.5
30,378.2,323.3:358.5,322.8
31,400.5,277.2:381.5,277.2
32,205.4,434.8:210.9,436.0
33,409.7,314.7:358.2,397.4
34,455.5,405.2:415.3,401.6
