0,304.7,320.9:248.4,320.3
1,318.1,271.6:263.3,273.9
2,382.8,338.9:327.2,337.5
3,326.1,113.8:272.3,113.0
4,406.7,348.5:347.6,347.2
5,243.9,410.1:186.1,410.7
6,239.4,411.3:186.1,410.7
7,448.2,461.8:386.3,459.3
8,290.3,97.0:357.2,281.9
