0,295.8,252.2:353.0,249.6
1,230.7,186.6:284.5,183.3
2,419.7,276.6:472.1,273.0
3,265.9,287.8:315.9,283.9
4,377.5,283.1:440.6,279.9
5,288.4,288.7:335.6,284.6
6,301.4,279.1:352.9,274.4
7,301.8,276.6:352.9,274.4
8,312.7,285.0:364.5,281.4
9,349.7,277.5:403.1,272.9
10,274.8,299.9:328.5,294.1
11,379.4,297.1:433.2,293.0
12,347.9,275.1:352.6,275.6
13,372.3,276.1:434.9,273.5
14,398.8,202.5:458.3,197.6
15,345.8,36.8:400.4,32.4
16,359.9,284.6:411.3,280.9
