0,335.9,306.9:319.1,309.7
1,232.9,368.9:215.0,372.1
2,299.9,114.7:283.9,117.2
3,289.4,227.8:273.0,228.5
4,301.2,65.3:285.3,66.8
5,328.6,260.8:313.0,262.7
6,243.0,415.3:228.3,424.2
7,346.7,297.2:329.4,300.6
8,471.3,417.6:457.0,426.2
9,377.8,276.3:361.6,278.9
10,287.3,145.2:271.2,146.8
11,378.3,275.8:361.8,278.4
12,222.2,265.8:206.3,268.4
13,320.5,90.1:304.3,91.6
14,290.0,301.9:272.0,305.6
15,243.8,306.3:226.6,309.2
16,381.7,303.5:365.4,305.4
17,309.1,219.0:293.1,221.6
18,288.9,183.6:272.4,186.2
19,397.2,275.9:380.9,278.5
20,546.7,433.9:525.4,440.1
21,308.3,223.9:292.5,226.0
22,279.5,236.6:263.6,238.9
23,256.4,312.9:240.3,315.2
24,374.5,291.1:358.3,293.4
25,308.3,264.1:291.8,266.6
26,325.1,232.8:309.1,234.8
27,307.1,183.0:291.9,184.9
28,223.1,116.1:206.7,116.5
29,260.6,134.3:243.2,136.3
30,269.2,138.3:251.0,138.9
31,250.5,264.7:234.1,267.1
32,307.5,41.9:290.8,43.6
33,359.4,305.5:344.0,308.2
34,149.6,270.2:131.6,273.1
35,394.6,332.5:377.4,335.9
36,145.0,194.0:126.0,196.0
37,189.8,211.2:173.5,212.5
38,111.5,53.1:94.4,54.0
39,585.8,427.3:481.9,434.8
40,551.3,426.1:481.9,434.8
41,614.3,424.0:481.9,434.8
42,110.7,169.6:92.1,170.7
43,165.2,95.4:148.3,95.4
