0,133.8,361.1:133.7,361.1
1,500.9,382.7:501.0,382.6
2,133.4,253.1:133.4,253.1
3,515.0,363.1:515.1,363.2
4,114.6,332.1:114.6,332.0
5,196.2,62.3:196.3,62.2
6,249.0,376.2:249.1,376.2
7,229.2,396.9:229.2,396.8
8,561.7,167.8:561.8,167.8
9,394.5,397.4:394.4,397.5
10,394.5,399.7:394.4,399.8
11,212.4,401.9:212.1,402.0
12,522.6,394.6:522.6,394.6
13,400.6,403.4:400.6,403.7
14,222.2,400.3:222.2,400.5
15,339.0,405.7:339.0,406.0
16,350.4,402.7:350.6,402.7
17,518.1,130.1:518.3,129.7
18,203.3,405.8:202.0,406.3
19,220.3,297.8:220.5,297.5
20,538.7,397.9:538.7,397.8
21,482.4,401.7:482.9,401.8
22,117.2,201.8:117.1,201.7
23,496.8,237.4:496.8,237.5
