0,319.1,309.7:314.1,316.5
1,283.9,117.2:276.7,122.1
2,273.0,228.5:267.3,235.9
3,285.3,66.8:277.2,72.0
4,292.3,152.1:284.8,157.4
5,228.3,424.2:221.5,447.2
6,271.2,146.8:264.7,152.6
7,313.0,262.7:307.5,269.1
8,329.4,300.6:324.8,307.0
9,233.8,286.3:227.1,292.4
10,361.8,278.4:357.0,284.4
11,304.3,91.6:297.2,97.1
12,206.3,268.4:198.5,274.4
13,272.0,305.6:263.7,312.5
14,272.4,186.2:265.7,191.5
15,293.1,221.6:286.4,227.1
16,380.9,278.5:376.2,284.6
17,265.0,89.6:257.3,94.9
18,291.3,202.6:284.1,208.4
19,280.0,278.9:273.6,285.2
20,306.7,137.5:299.4,142.3
21,292.5,226.0:285.9,231.9
22,228.3,130.5:224.5,137.2
23,309.1,234.8:302.6,241.4
24,218.5,136.3:210.7,137.1
25,243.5,334.7:234.9,341.5
26,291.9,184.9:284.2,190.5
27,251.0,138.9:246.2,159.3
28,240.3,315.2:233.3,322.1
29,292.4,45.0:284.6,49.9
30,173.5,212.5:166.0,220.2
31,377.4,335.9:373.8,342.2
32,344.0,308.2:338.0,315.4
33,292.3,440.7:291.2,460.2
34,294.5,437.0:291.2,460.2
35,414.5,405.2:411.4,413.1
36,280.3,338.4:274.6,346.8
