0,329.7,315.3:371.2,315.6
1,218.5,377.6:260.1,376.4
2,238.5,269.0:279.7,268.3
3,213.4,246.9:255.0,246.5
4,303.9,290.1:344.6,289.6
5,403.8,419.5:445.9,420.3
6,283.2,228.1:323.5,228.0
7,218.7,348.3:260.0,347.0
8,322.3,265.4:362.6,265.4
9,217.8,258.7:259.2,258.4
10,292.0,208.1:332.0,208.3
11,376.2,281.0:417.8,280.7
12,343.3,304.4:384.4,304.2
13,280.1,143.4:320.0,143.0
14,212.8,268.2:254.4,267.4
15,483.6,451.7:527.1,453.9
16,483.2,453.1:526.7,455.2
17,312.0,87.2:352.0,86.9
18,380.9,309.8:422.4,309.4
19,281.7,184.5:322.2,184.2
20,397.3,280.6:439.3,280.2
21,303.3,220.2:343.7,219.9
22,213.5,218.8:255.1,218.2
23,238.9,414.7:279.3,414.2
24,301.3,201.6:342.2,200.1
25,283.1,434.3:324.4,433.6
26,388.6,343.3:429.9,344.0
27,216.0,210.6:257.6,210.4
28,221.6,303.2:262.8,303.2
29,402.6,297.0:444.0,296.4
30,373.5,429.9:414.8,430.7
31,301.5,183.1:342.7,182.8
32,242.4,404.4:283.3,403.4
33,284.9,348.8:323.2,347.0
34,310.6,299.4:350.4,299.2
35,439.0,438.2:482.1,439.8
36,389.7,437.9:431.5,438.6
