0,156.2,231.3:156.1,231.3
1,525.3,243.2:525.3,243.1
2,481.9,256.0:481.9,255.9
3,28.7,237.3:28.6,237.2
4,355.0,425.2:355.2,425.3
5,121.1,257.4:121.1,257.3
6,157.0,281.8:156.9,281.8
7,492.7,393.2:492.6,393.0
8,183.9,66.5:183.9,66.5
9,176.4,72.9:175.9,73.1
10,86.8,373.0:86.7,373.0
11,549.3,252.5:549.2,252.5
12,531.5,183.9:531.6,183.6
13,184.2,290.7:184.5,290.6
14,200.7,400.4:200.8,400.3
15,254.9,273.6:254.5,273.6
16,171.6,295.0:171.0,295.2
17,545.0,263.4:544.5,263.3
18,118.4,246.7:118.3,246.8
19,502.4,135.9:502.1,136.3
20,488.1,273.0:487.9,273.0
21,140.5,64.8:140.3,64.9
22,611.3,385.9:611.5,385.1
23,616.3,384.6:616.5,384.6
24,525.7,404.0:527.0,404.5
25,212.6,250.6:212.9,250.6
26,510.8,257.2:510.9,257.1
27,93.2,68.6:93.2,68.5
28,218.0,256.2:218.0,256.2
29,180.4,280.1:180.4,280.2
30,573.3,262.9:573.9,262.8
31,609.9,398.2:610.3,398.3
32,611.3,395.8:611.7,395.9
33,581.6,267.5:581.2,267.8
34,527.2,139.8:527.1,138.1
35,254.5,292.0:254.3,291.9
36,569.2,393.4:561.4,392.5
37,505.6,391.7:505.1,391.8
38,178.8,447.0:173.9,452.8
39,571.9,393.0:427.9,393.8
40,97.2,203.7:97.2,203.7
41,242.5,284.4:242.4,284.5
42,593.7,385.0:579.0,384.9
43,601.7,391.8:588.5,391.3
44,536.5,384.4:579.0,384.9
45,528.7,391.6:427.9,393.8
46,139.2,315.7:561.4,392.5
47,575.0,381.5:575.1,382.7
48,73.6,101.2:73.7,100.9
49,83.2,256.2:83.4,255.9
50,548.6,393.1:427.9,393.8
51,595.7,380.5:579.0,384.9
52,427.3,393.3:427.9,393.8
53,425.5,393.2:427.9,393.8
