0,149.8,307.3:146.1,305.7
1,451.3,162.2:444.6,161.1
2,191.8,388.5:190.1,388.1
3,491.4,182.9:484.8,181.4
4,133.8,418.7:129.8,418.3
5,138.3,415.2:136.5,415.1
6,318.6,402.2:318.3,400.5
7,283.4,391.2:282.0,389.6
8,293.1,403.8:292.0,401.9
9,296.0,381.7:294.0,380.7
10,291.8,408.7:290.9,406.6
11,468.2,396.9:471.4,398.0
12,459.1,396.4:459.1,394.9
13,478.9,397.3:481.6,397.3
14,472.1,399.7:471.4,398.0
15,288.9,414.4:288.1,413.7
16,219.6,406.6:216.5,405.7
17,406.9,400.9:404.1,399.3
18,496.6,370.1:491.6,370.2
19,499.5,374.6:493.1,374.1
20,503.3,383.9:495.9,379.9
21,84.0,410.6:83.8,409.1
22,604.4,388.8:608.8,388.4
23,608.9,389.9:608.8,388.4
24,599.8,377.6:602.5,375.3
25,529.7,392.6:517.3,390.9
26,462.8,374.4:460.8,370.5
27,96.0,329.9:93.3,328.9
28,533.0,380.0:538.1,378.1
29,95.5,332.1:93.3,328.9
30,530.9,380.6:538.1,378.1
31,533.8,377.3:538.1,378.1
