0,95.2,282.8:95.0,282.8
1,121.4,362.3:121.3,362.4
2,122.0,264.7:122.1,264.7
3,158.5,261.0:158.6,261.0
4,213.4,266.9:213.4,266.9
5,121.0,257.4:121.1,257.4
6,217.0,275.1:217.0,275.1
7,106.7,337.5:106.7,337.6
8,183.9,66.5:184.0,66.5
9,486.7,382.3:486.9,382.2
10,497.3,394.4:497.7,394.7
11,549.2,252.5:549.1,252.5
12,201.2,400.3:201.2,400.3
13,248.2,386.2:248.1,386.0
14,504.4,396.7:504.3,396.6
15,330.7,403.8:330.7,403.7
16,510.5,385.1:510.3,384.7
17,118.4,246.7:118.3,246.6
18,539.3,111.1:539.4,110.8
19,388.5,407.3:388.2,407.3
20,502.3,136.2:502.2,136.3
21,469.6,398.8:469.5,399.0
22,192.7,402.7:192.9,402.7
23,206.1,304.5:206.3,304.5
24,178.3,409.4:178.5,409.4
25,616.7,384.6:616.4,384.7
26,207.2,256.8:207.1,256.8
27,122.9,199.6:122.8,199.7
28,143.6,129.3:143.5,129.5
29,237.1,416.2:237.2,416.4
30,129.4,224.6:129.3,224.5
31,265.7,400.9:265.8,400.8
32,97.2,203.6:97.3,203.7
33,77.4,245.2:77.5,245.1
34,574.2,381.2:572.5,381.0
35,573.4,383.6:572.5,381.0
36,88.4,262.9:88.4,263.0
37,143.5,317.0:144.6,316.9
38,583.0,367.2:582.9,366.2
