0,272.3,232.2:281.9,232.4
1,285.7,230.4:295.0,230.7
2,55.2,222.7:66.9,222.9
3,270.5,361.7:284.9,362.3
4,245.3,280.6:257.2,281.1
5,260.8,268.8:270.5,269.5
6,90.2,376.0:102.0,376.8
7,180.3,223.9:190.7,224.2
8,172.7,236.6:183.4,236.9
9,179.8,235.5:190.5,235.7
10,278.0,239.6:287.3,239.9
11,304.1,279.8:316.6,280.1
12,317.0,312.7:330.7,313.0
13,327.8,62.1:338.4,62.5
14,237.1,355.1:249.4,354.6
15,237.6,367.7:250.3,367.8
16,221.3,72.6:231.3,73.1
17,369.9,274.3:381.9,274.3
18,292.6,282.9:305.5,283.2
19,43.6,217.6:55.3,218.1
20,318.8,66.9:330.2,67.0
21,99.8,385.6:111.3,385.9
22,332.8,288.9:345.9,289.4
23,278.3,226.8:287.5,227.0
24,319.5,294.2:333.2,294.5
25,499.4,404.0:543.9,405.9
26,368.7,256.5:380.2,256.7
27,285.0,389.1:296.2,388.3
28,284.9,387.8:296.2,388.3
29,522.7,403.9:567.6,405.4
30,275.4,71.7:285.7,71.5
31,329.7,135.8:337.1,134.5
32,263.0,249.3:272.8,249.5
33,519.8,402.3:567.6,405.4
34,225.3,300.8:237.4,301.1
35,185.6,216.3:196.5,216.4
36,259.2,235.3:268.9,235.8
37,58.3,191.9:69.6,192.0
38,359.5,282.0:372.4,282.1
39,401.9,289.0:414.0,289.2
40,245.9,372.4:258.8,372.5
41,61.5,253.1:73.6,253.0
42,30.2,225.6:42.4,225.9
43,258.5,205.5:268.1,206.1
44,406.2,285.9:418.2,286.1
45,258.2,94.8:268.2,94.0
46,258.2,93.4:268.2,94.0
47,268.3,136.8:277.4,136.6
48,262.3,209.2:272.0,210.2
49,468.2,402.3:479.9,403.5
50,70.4,210.3:82.2,210.4
51,336.3,300.9:349.8,301.2
52,349.0,278.9:362.2,279.3
53,237.2,204.2:248.0,204.8
54,320.9,389.9:603.3,393.3
55,187.1,242.3:197.6,242.4
56,303.8,400.3:313.5,401.1
57,301.3,400.2:313.5,401.1
58,261.3,388.7:331.1,390.2
59,570.1,395.2:603.3,393.3
60,189.7,200.3:199.9,200.7
61,258.1,70.9:268.3,71.0
62,218.9,92.6:228.9,93.0
63,214.2,180.5:224.4,181.0
64,386.4,280.7:398.6,280.8
65,360.3,28.9:371.2,37.2
66,363.7,226.2:371.2,37.2
67,555.2,393.0:603.3,393.3
