0,133.9,361.0:133.9,361.0
1,515.2,237.5:515.4,237.5
2,501.0,382.5:501.0,382.7
3,168.9,254.6:169.4,254.5
4,522.6,176.9:522.5,176.9
5,114.7,331.9:114.7,332.1
6,196.3,62.2:196.1,62.2
7,249.7,376.0:249.4,376.1
8,261.1,384.2:261.2,384.3
9,394.3,397.5:394.3,397.6
10,394.2,399.7:394.3,399.7
11,561.5,167.8:561.6,167.8
12,184.1,290.7:184.1,290.8
13,250.9,396.4:250.9,396.5
14,522.4,394.4:522.7,394.7
15,239.7,384.6:240.2,384.9
16,212.3,402.0:212.2,402.1
17,338.9,405.6:338.9,405.8
18,553.9,106.1:554.0,105.9
19,222.2,400.2:222.0,400.6
20,203.4,405.7:203.8,405.7
21,350.5,402.9:350.5,403.1
22,538.6,397.8:538.7,397.9
23,85.7,398.4:85.8,398.5
24,482.5,401.7:482.3,401.7
25,90.5,299.8:90.5,299.9
26,556.2,404.5:555.5,403.9
27,142.1,220.2:142.1,220.0
28,587.7,390.9:586.4,390.8
29,117.2,201.6:117.2,201.8
30,136.1,396.7:135.7,396.6
31,543.5,133.8:542.9,132.7
32,90.1,86.2:90.1,86.2
33,546.6,220.3:546.8,220.3
34,251.6,231.6:251.7,231.8
