0,121.5,362.4:121.5,362.4
1,160.5,304.8:160.6,304.8
2,213.4,266.9:213.5,266.9
3,156.9,281.9:156.8,281.9
4,121.1,257.4:121.0,257.4
5,183.9,66.6:183.9,66.6
6,487.1,382.2:487.0,382.2
7,343.2,397.8:343.2,397.9
8,497.7,394.6:497.6,394.5
9,200.7,400.5:200.9,400.4
10,337.3,399.8:337.3,399.8
11,207.5,399.1:207.1,399.6
12,504.4,396.7:504.2,396.5
13,170.9,295.2:170.9,295.2
14,504.2,210.5:504.0,210.5
15,118.4,246.7:118.3,246.7
16,539.4,111.2:539.3,110.8
17,510.4,384.7:511.1,384.9
18,192.8,403.0:192.8,402.8
19,206.1,304.5:206.2,304.4
20,177.7,409.6:178.3,409.4
21,510.9,382.6:511.1,383.3
22,526.3,404.3:525.9,404.2
23,205.6,229.4:205.5,229.2
24,510.9,257.2:510.9,257.2
25,616.0,384.6:616.6,384.7
26,237.7,416.2:237.2,416.4
27,535.7,384.8:594.8,385.0
28,611.7,396.0:611.3,395.7
29,537.0,382.2:537.7,383.3
30,610.9,398.4:610.3,398.3
31,265.6,400.9:265.4,401.0
32,571.1,380.5:572.2,380.9
33,77.5,245.3:77.4,245.3
34,103.6,413.0:104.0,412.9
35,77.6,91.0:77.5,91.0
36,73.5,101.4:73.7,100.9
37,413.5,393.0:413.2,393.1
38,174.6,374.9:173.5,374.8
39,426.2,393.7:587.9,392.9
