0,453.0,303.2:440.2,303.1
1,343.3,335.0:331.9,335.1
2,401.4,224.3:390.2,224.6
3,416.6,62.5:405.0,62.6
4,374.9,384.5:363.8,384.5
5,444.2,257.1:432.3,257.1
6,462.7,294.9:449.9,294.8
7,360.6,304.4:348.0,304.4
8,406.6,298.3:395.1,297.9
9,410.5,394.3:398.0,394.3
10,384.1,335.7:371.8,335.5
11,396.6,401.4:377.7,402.2
12,568.8,412.2:554.9,411.8
13,602.2,401.0:588.2,400.9
14,135.3,171.2:121.9,170.9
15,387.1,395.1:371.5,396.0
16,385.4,395.8:371.5,396.0
17,459.9,403.7:442.8,404.1
18,442.1,403.1:433.3,403.0
