0,333.7,303.0:408.5,302.8
1,293.6,113.5:366.9,113.4
2,233.9,365.3:307.8,364.1
3,284.8,224.3:358.0,224.4
4,279.7,142.2:353.4,141.8
5,292.5,63.7:366.4,63.2
6,310.6,280.5:384.7,280.3
7,326.1,257.2:400.0,257.1
8,294.0,256.8:367.8,256.6
9,336.7,414.2:417.0,414.8
10,221.4,240.6:294.7,240.0
11,245.1,304.7:318.7,304.5
12,291.5,298.0:364.2,297.8
13,250.2,281.0:322.3,280.4
14,294.8,393.5:370.1,392.1
15,257.0,282.1:330.2,282.2
16,233.5,126.7:306.6,127.6
17,272.8,86.4:346.2,86.5
18,222.5,220.1:295.7,220.0
19,279.0,279.1:353.3,278.9
20,222.8,214.8:296.4,214.5
21,201.2,90.6:275.8,91.8
22,492.9,409.2:577.1,413.4
23,444.9,405.3:521.8,408.3
24,321.7,229.7:394.9,229.6
25,535.0,406.5:617.0,409.3
26,543.3,410.0:617.0,409.3
27,557.5,416.2:617.0,409.3
28,172.5,69.2:248.7,72.6
29,528.5,403.2:609.9,406.9
30,363.5,281.3:436.8,280.9
31,225.2,206.5:299.0,206.5
32,293.3,273.2:367.5,272.6
33,509.1,390.0:551.4,389.2
34,275.8,282.1:349.5,282.0
35,273.1,401.3:395.9,402.6
36,316.9,401.2:395.9,402.6
37,144.4,215.8:220.4,215.9
38,293.1,402.9:370.2,401.8
39,513.7,393.9:551.4,389.2
40,146.3,256.0:220.8,255.2
