0,149.4,216.9:149.7,216.6
1,133.3,253.2:133.4,253.0
2,170.0,277.4:170.3,277.1
3,522.2,176.8:522.5,176.6
4,163.7,238.3:163.6,237.9
5,196.2,62.3:196.3,62.1
6,248.5,376.1:249.5,376.1
7,545.3,179.2:545.5,179.3
8,561.3,167.8:561.6,167.8
9,513.0,158.2:513.1,158.7
10,261.3,384.3:261.2,384.3
11,184.4,290.6:184.1,290.7
12,160.6,223.5:160.7,223.3
13,523.5,383.8:524.0,383.7
14,93.2,359.8:93.3,359.7
15,559.4,259.7:559.9,259.5
16,553.6,106.3:554.0,105.8
17,222.4,400.9:222.3,400.5
18,242.4,271.3:242.5,271.1
19,517.2,130.5:518.1,129.8
20,273.2,391.7:273.5,391.3
21,149.1,387.9:148.9,388.0
22,89.4,398.5:89.5,398.5
23,227.6,388.2:227.1,388.1
24,90.5,300.1:90.9,299.7
25,525.2,253.3:525.6,253.4
26,258.3,325.5:258.4,325.6
27,137.1,278.6:137.6,278.5
28,598.4,56.3:598.9,56.1
29,117.0,201.9:117.1,201.5
30,571.0,267.5:571.1,267.6
31,610.1,384.8:436.3,384.9
32,547.1,384.6:436.3,384.9
33,547.9,382.5:547.1,382.3
34,254.6,280.3:254.7,280.2
35,89.9,86.5:90.1,86.3
36,90.5,241.0:90.8,241.1
37,541.8,128.0:542.3,128.4
38,546.4,220.3:546.6,220.3
39,25.4,398.7:25.4,398.4
40,188.9,374.2:186.9,373.6
41,585.8,391.0:552.3,392.2
42,251.7,232.0:251.8,231.7
43,200.8,450.0:199.9,451.2
44,202.9,447.2:199.9,451.2
45,140.7,320.5:140.9,320.8
46,543.3,132.5:543.5,133.7
47,197.9,454.1:199.9,451.2
48,558.6,278.2:558.6,278.2
49,496.6,237.5:496.9,237.3
50,210.1,446.0:209.2,447.1
51,544.5,137.7:544.9,138.2
52,238.1,169.8:238.2,163.4
53,567.0,463.1:566.9,463.0
