0,367.9,447.0:355.9,447.7
1,195.6,330.7:176.9,331.2
2,594.2,178.7:579.6,178.9
3,598.0,173.9:583.1,174.6
4,120.4,53.5:113.7,53.6
5,533.2,289.5:521.0,290.1
6,105.6,84.6:98.6,84.5
7,542.9,272.6:528.7,273.0
8,116.6,299.9:101.5,300.5
9,594.0,128.5:579.2,128.5
10,423.6,440.4:411.8,440.7
11,229.3,75.0:220.6,108.4
12,230.9,148.2:220.6,108.4
13,232.4,178.4:220.6,108.4
14,232.6,229.3:220.6,108.4
15,149.8,348.1:130.7,348.5
16,107.2,120.1:98.9,115.7
17,232.9,245.5:222.0,189.0
18,107.4,129.8:100.7,147.4
