0,371.2,315.6:452.8,315.1
1,279.7,268.3:358.6,266.6
2,445.9,420.3:531.6,423.8
3,330.1,58.9:407.9,57.5
4,260.0,347.0:341.8,345.2
5,362.6,265.4:442.7,265.2
6,332.9,258.2:411.7,257.3
7,417.8,280.7:498.6,280.4
8,306.8,364.1:388.7,362.3
9,326.5,281.8:405.9,280.8
10,279.3,414.2:360.6,411.1
11,276.3,127.0:352.6,126.9
12,429.9,344.0:513.7,344.8
13,372.3,284.1:455.9,283.6
14,248.6,317.8:328.2,316.7
15,444.0,296.4:527.7,296.3
16,220.8,212.0:300.8,211.7
17,272.4,314.8:352.3,313.9
