0,121.5,362.3:121.4,362.3
1,121.0,257.4:121.1,257.4
2,183.8,66.6:183.9,66.4
3,486.7,382.3:486.8,382.2
4,549.0,252.5:549.2,252.5
5,371.8,399.8:371.8,399.7
6,497.5,394.6:497.7,394.6
7,228.1,388.3:228.1,388.1
8,337.0,399.7:337.1,399.7
9,200.8,400.5:200.9,400.4
10,248.2,386.1:248.0,386.1
11,170.3,295.6:170.3,295.7
12,504.3,396.7:504.4,396.6
13,118.3,246.7:118.4,246.7
14,192.6,402.8:192.9,402.7
15,470.0,398.6:469.5,398.9
16,206.2,304.5:206.2,304.4
17,514.9,400.5:515.1,401.1
18,178.0,409.4:178.1,409.4
19,77.1,304.6:76.9,304.5
20,613.0,385.7:613.7,385.9
21,237.0,416.1:237.2,416.1
22,572.7,382.6:572.3,383.5
23,263.8,398.9:262.8,398.9
24,265.4,401.0:265.5,400.9
25,125.4,398.2:124.9,398.3
26,134.4,391.1:134.8,390.9
27,77.7,90.6:77.7,90.7
28,73.6,101.2:73.7,101.4
29,582.8,366.0:582.9,366.5
