0,122.8,236.4:120.4,237.9
1,241.3,422.8:234.3,424.4
2,520.6,175.7:512.1,177.9
3,512.6,164.0:503.9,165.8
4,574.9,260.4:566.6,261.3
5,154.4,60.9:148.5,62.4
6,549.3,182.6:540.5,184.2
7,237.0,457.9:229.3,459.7
8,202.7,339.6:193.5,340.7
9,555.9,172.8:547.9,174.3
10,234.8,283.2:227.1,284.9
11,565.8,278.0:556.4,279.7
12,497.1,295.1:490.9,295.6
13,573.7,272.5:563.8,274.2
14,480.5,274.3:473.5,275.7
15,501.5,274.9:494.2,276.3
16,242.8,300.1:235.2,301.5
17,534.9,117.5:526.3,118.8
18,585.7,281.0:576.1,282.6
19,589.6,277.9:580.5,279.4
20,236.2,304.0:228.4,305.5
21,177.4,454.8:167.1,456.9
22,88.3,204.4:85.3,205.6
23,607.2,42.6:598.1,44.7
24,258.7,422.2:253.8,423.1
25,580.2,278.5:571.0,279.9
26,582.4,34.7:573.8,36.5
27,85.0,194.0:81.9,195.2
28,594.9,272.1:585.8,273.8
29,213.6,247.5:207.1,249.0
30,601.7,278.1:592.1,280.1
31,22.3,211.1:19.2,212.6
32,546.3,127.5:540.2,135.1
33,199.7,83.3:192.3,19.8
34,93.6,213.9:90.6,214.9
35,548.7,132.7:540.2,135.1
36,523.4,189.6:515.0,191.0
37,88.1,346.7:77.3,347.0
38,198.5,44.5:192.3,19.8
39,198.0,30.1:193.1,35.9
40,200.8,125.1:195.0,229.1
41,284.5,420.2:278.5,423.0
42,545.1,163.7:22.0,461.9
43,562.5,286.5:551.8,288.3
44,165.5,445.9:155.9,448.0
45,199.1,72.4:195.8,261.3
46,200.6,144.2:194.9,170.9
47,596.3,179.1:592.2,180.4
48,572.7,297.9:562.0,298.8
49,613.5,36.1:604.2,37.9
50,588.9,40.9:581.2,42.2
51,538.8,51.8:530.6,53.7
