0,121.4,362.3:121.5,362.3
1,525.2,243.1:525.2,243.2
2,158.6,261.0:158.6,261.0
3,355.1,425.5:355.0,425.4
4,121.0,257.4:121.0,257.4
5,492.4,393.1:492.4,393.1
6,486.7,382.4:486.7,382.3
7,549.0,252.5:549.0,252.5
8,497.4,394.4:497.5,394.6
9,371.7,399.9:371.8,399.8
10,488.6,383.7:488.5,383.7
11,337.1,399.8:337.0,399.7
12,200.9,400.4:200.8,400.5
13,207.6,399.2:207.1,399.8
14,504.3,396.6:504.3,396.7
15,170.7,295.4:170.3,295.6
16,247.8,386.0:248.2,386.1
17,473.3,394.8:473.4,394.9
18,330.3,403.6:330.2,403.5
19,118.4,246.6:118.3,246.7
20,502.1,136.1:502.2,136.2
21,192.7,402.8:192.6,402.8
22,206.2,304.5:206.2,304.5
23,515.0,400.6:514.9,400.5
24,177.7,409.6:178.0,409.4
25,615.9,384.5:615.6,384.5
26,237.0,416.4:237.0,416.1
27,235.1,248.8:235.0,248.8
28,265.2,401.0:265.4,401.0
29,181.8,385.0:183.3,384.6
30,590.8,385.7:594.2,382.4
31,73.6,101.6:73.6,101.2
