0,331.3,230.0:337.1,230.5
1,115.1,221.5:122.7,222.7
2,340.7,362.8:349.3,362.8
3,385.1,302.0:394.9,302.3
4,148.8,376.2:156.2,376.1
5,226.0,236.3:232.7,236.7
6,435.3,272.6:444.0,273.0
7,371.6,279.7:380.7,280.0
8,103.9,217.4:111.4,218.0
9,394.0,293.6:403.3,294.3
10,349.5,297.4:358.6,297.5
11,134.1,224.7:141.5,225.5
12,438.3,390.7:447.5,391.6
13,393.2,220.4:399.8,219.7
14,391.8,201.8:398.8,200.8
15,383.0,145.8:388.7,148.3
16,422.9,394.1:432.5,394.3
17,115.9,186.8:123.7,187.5
18,361.8,133.0:365.9,130.9
19,467.5,288.5:476.3,288.9
20,471.9,285.5:480.3,285.6
21,310.4,208.5:316.6,210.0
22,430.2,281.7:439.7,282.2
23,106.5,276.8:113.8,277.5
24,328.0,288.1:335.4,288.8
25,102.5,169.0:109.2,169.7
26,245.1,266.3:252.6,266.5
27,430.5,245.7:438.4,245.9
28,288.8,204.6:295.6,206.2
29,375.3,227.3:380.8,227.9
30,562.0,394.4:595.1,397.6
31,454.7,280.4:463.0,280.6
32,256.1,215.3:262.6,215.9
33,608.9,397.4:595.1,397.6
34,421.7,193.6:428.1,120.9
