0,133.8,361.1:133.8,361.1
1,500.8,384.7:500.6,384.7
2,500.9,382.7:500.8,382.6
3,133.4,253.1:133.4,253.1
4,114.6,332.0:114.7,332.0
5,196.2,62.1:196.2,62.2
6,249.2,376.2:249.3,376.2
7,261.1,384.3:261.2,384.3
8,388.1,395.6:388.0,395.6
9,561.6,167.9:561.6,167.8
10,513.2,158.6:513.1,158.7
11,394.4,397.6:394.4,397.5
12,394.4,399.7:394.5,399.7
13,229.0,397.0:229.1,397.0
14,239.8,384.8:240.2,384.9
15,522.7,394.6:522.6,394.6
16,212.3,401.9:212.2,401.9
17,93.2,359.7:93.2,359.7
18,359.2,401.4:359.2,401.3
19,400.7,403.5:400.5,403.8
20,531.0,396.4:530.9,396.4
21,222.1,400.2:222.1,400.1
22,338.9,406.0:338.9,406.0
23,498.3,394.1:498.3,394.2
24,523.8,382.4:523.9,382.4
25,350.5,402.7:350.6,402.7
26,518.0,129.9:518.1,129.9
27,202.1,406.1:202.3,406.0
28,496.1,396.0:495.8,396.0
29,538.7,397.8:538.5,397.8
30,482.4,401.7:482.5,401.7
31,90.5,299.9:90.5,299.9
32,555.5,404.1:556.4,404.3
33,547.4,382.2:546.9,382.3
34,247.5,244.6:247.5,244.6
35,90.6,241.2:90.6,241.1
36,188.6,374.5:188.6,374.2
