0,121.4,362.4:121.4,362.3
1,525.2,243.2:525.2,243.1
2,213.4,266.9:213.3,266.9
3,121.0,257.4:121.0,257.4
4,157.0,281.9:156.9,281.8
5,183.9,66.4:183.9,66.4
6,486.9,382.3:486.7,382.4
7,371.8,399.9:371.7,399.9
8,497.4,394.6:497.4,394.4
9,201.0,400.4:200.9,400.4
10,207.6,399.1:207.6,399.2
11,248.0,386.0:247.8,386.0
12,504.7,396.7:504.3,396.6
13,473.5,394.7:473.3,394.8
14,225.3,237.8:225.3,238.0
15,118.4,246.7:118.4,246.6
16,502.2,136.1:502.1,136.1
17,192.7,402.9:192.7,402.8
18,469.5,398.9:469.0,398.9
19,206.3,304.4:206.2,304.5
20,177.9,409.5:177.7,409.6
21,616.5,384.5:615.9,384.5
22,205.7,229.6:205.7,229.4
23,77.0,304.5:76.9,304.5
24,236.9,416.4:237.0,416.4
25,181.1,452.2:181.2,452.1
26,608.4,402.4:608.8,402.6
27,265.9,400.9:265.2,401.0
28,561.7,392.0:559.6,392.0
29,175.0,380.4:177.1,380.2
30,105.7,232.1:105.4,232.1
31,73.6,101.6:73.6,101.6
