0,133.8,361.1:133.8,361.1
1,500.6,384.7:500.5,384.7
2,500.8,382.6:500.8,382.7
3,169.3,254.5:169.2,254.5
4,226.6,262.6:226.6,262.5
5,133.4,253.1:133.4,253.1
6,112.3,322.9:112.4,323.0
7,114.7,332.0:114.6,332.0
8,249.3,376.2:249.3,376.2
9,196.2,62.2:196.2,62.2
10,261.2,384.3:261.4,384.4
11,388.0,395.6:388.0,395.6
12,561.6,167.8:561.6,167.9
13,394.4,397.5:394.4,397.6
14,522.6,394.6:522.6,394.5
15,212.2,401.9:212.4,401.9
16,359.2,401.3:359.2,401.3
17,400.5,403.8:400.5,403.8
18,553.8,105.5:553.9,105.9
19,222.1,400.1:222.0,400.2
20,338.9,406.0:339.0,405.9
21,498.3,394.2:498.3,394.2
22,350.6,402.7:350.6,402.8
23,518.1,129.9:518.4,130.1
24,202.3,406.0:202.2,406.2
25,495.8,396.0:495.7,395.8
26,538.5,397.8:538.6,397.9
27,482.5,401.7:483.2,401.8
28,276.0,394.2:276.0,394.2
29,149.4,387.8:148.2,387.8
30,90.5,299.9:90.5,299.9
31,225.9,246.3:225.7,246.3
32,154.9,125.3:154.9,125.0
33,74.5,400.9:74.6,400.9
34,90.0,86.1:90.1,86.4
35,109.1,199.2:109.1,199.2
36,121.2,226.7:121.1,226.9
37,251.7,231.9:251.7,231.6
