0,133.8,361.1:133.9,361.1
1,500.5,384.7:500.6,384.6
2,500.8,382.7:500.8,382.7
3,114.6,332.0:114.6,332.0
4,249.3,376.2:249.2,376.2
5,364.8,395.4:364.8,395.3
6,561.6,167.9:561.5,167.9
7,394.4,397.6:394.4,397.5
8,228.9,397.0:228.8,397.1
9,522.6,394.5:522.5,394.4
10,212.4,401.9:212.6,401.8
11,93.2,359.8:93.2,359.8
12,359.2,401.3:359.2,401.4
13,400.5,403.8:400.6,403.8
14,222.0,400.2:222.0,400.2
15,530.9,396.4:530.5,396.2
16,553.9,105.9:553.9,106.2
17,339.0,405.9:339.0,406.0
18,350.6,402.8:350.6,402.8
19,202.2,406.2:202.5,405.9
20,538.6,397.9:538.5,397.8
21,495.7,395.8:495.6,395.7
22,483.2,401.8:483.3,401.8
23,489.1,397.0:488.6,397.0
24,90.5,299.9:90.5,300.0
25,117.2,201.8:117.2,201.6
26,90.5,241.2:90.4,241.2
27,193.9,458.1:193.9,458.2
